%YAML 1.1
%TAG !u! tag:unity3d.com,2011:
--- !u!74 &7400000
AnimationClip:
  m_ObjectHideFlags: 0
  m_PrefabParentObject: {fileID: 0}
  m_PrefabInternal: {fileID: 0}
  m_Name: ghost_happy
  serializedVersion: 6
  m_Legacy: 0
  m_Compressed: 0
  m_UseHighQualityCurve: 1
  m_RotationCurves: []
  m_CompressedRotationCurves: []
  m_EulerCurves: []
  m_PositionCurves: []
  m_ScaleCurves: []
  m_FloatCurves: []
  m_PPtrCurves:
  - curve:
    - time: 0
      value: {fileID: 21300000, guid: 191372c301c861e4aa8097cfc2d3827e, type: 3}
    - time: 0.1
      value: {fileID: 21300000, guid: 590b079436168424bbb0972e0805ea61, type: 3}
    - time: 0.2
      value: {fileID: 21300000, guid: 5fd12742e607b914f8cfa553e19f9070, type: 3}
    - time: 0.3
      value: {fileID: 21300000, guid: 654a5a603588b7c46b90ac456fdece51, type: 3}
    - time: 0.4
      value: {fileID: 21300000, guid: ca509e6df92e271408391dd021ebbf6b, type: 3}
    - time: 0.5
      value: {fileID: 21300000, guid: a4bc888ad4797354fb7888a8550b3251, type: 3}
    - time: 0.6
      value: {fileID: 21300000, guid: 6ea5517bea4762243852d35fabf87f3e, type: 3}
    - time: 0.7
      value: {fileID: 21300000, guid: 0541c074f9a4cc548b481fbc8579163f, type: 3}
    - time: 0.8
      value: {fileID: 21300000, guid: 0769074529be3df42bced19a0dbac644, type: 3}
    - time: 0.9
      value: {fileID: 21300000, guid: 9b9538ee9629e154ca5ae2fe345e231c, type: 3}
    - time: 1
      value: {fileID: 21300000, guid: 09231e675e72a114eb5983346c4eea5c, type: 3}
    - time: 1.1
      value: {fileID: 21300000, guid: 189e7117a94e2c642bdbb531ac9e97af, type: 3}
    - time: 1.2
      value: {fileID: 21300000, guid: 1373bbff252ab7948a0f216dff340181, type: 3}
    - time: 1.3
      value: {fileID: 21300000, guid: 8caf790055c9f1948a5a7270f99425f6, type: 3}
    - time: 1.4
      value: {fileID: 21300000, guid: 8a348899322f2444f802853ddbfc033c, type: 3}
    - time: 1.5
      value: {fileID: 21300000, guid: ef930ceb7b18670478586884e8e63ffe, type: 3}
    - time: 1.6
      value: {fileID: 21300000, guid: 3636f7397a600ab4bbf02defe2f3c692, type: 3}
    - time: 1.7
      value: {fileID: 21300000, guid: c2a480011eb806441b55cd50244cbafa, type: 3}
    - time: 1.8
      value: {fileID: 21300000, guid: 87ad6e81629ec8a48bf306a5646e4eec, type: 3}
    - time: 1.9
      value: {fileID: 21300000, guid: 2b053ef5863e66a498bcc52d003b9085, type: 3}
    - time: 2
      value: {fileID: 21300000, guid: 0904faa4d55445740aa1b4b79d666b88, type: 3}
    - time: 2.1
      value: {fileID: 21300000, guid: f7017288f9b538746b1d6087476ad80b, type: 3}
    - time: 2.2
      value: {fileID: 21300000, guid: 5e2cbd8a5569ec340a645a776b6a3409, type: 3}
    - time: 2.3
      value: {fileID: 21300000, guid: b574e767af3f23446b10205bc04fd755, type: 3}
    attribute: m_Sprite
    path: 
    classID: 212
    script: {fileID: 0}
  m_SampleRate: 10
  m_WrapMode: 0
  m_Bounds:
    m_Center: {x: 0, y: 0, z: 0}
    m_Extent: {x: 0, y: 0, z: 0}
  m_ClipBindingConstant:
    genericBindings:
    - path: 0
      attribute: 0
      script: {fileID: 0}
      classID: 212
      customType: 23
      isPPtrCurve: 1
    pptrCurveMapping:
    - {fileID: 21300000, guid: 191372c301c861e4aa8097cfc2d3827e, type: 3}
    - {fileID: 21300000, guid: 590b079436168424bbb0972e0805ea61, type: 3}
    - {fileID: 21300000, guid: 5fd12742e607b914f8cfa553e19f9070, type: 3}
    - {fileID: 21300000, guid: 654a5a603588b7c46b90ac456fdece51, type: 3}
    - {fileID: 21300000, guid: ca509e6df92e271408391dd021ebbf6b, type: 3}
    - {fileID: 21300000, guid: a4bc888ad4797354fb7888a8550b3251, type: 3}
    - {fileID: 21300000, guid: 6ea5517bea4762243852d35fabf87f3e, type: 3}
    - {fileID: 21300000, guid: 0541c074f9a4cc548b481fbc8579163f, type: 3}
    - {fileID: 21300000, guid: 0769074529be3df42bced19a0dbac644, type: 3}
    - {fileID: 21300000, guid: 9b9538ee9629e154ca5ae2fe345e231c, type: 3}
    - {fileID: 21300000, guid: 09231e675e72a114eb5983346c4eea5c, type: 3}
    - {fileID: 21300000, guid: 189e7117a94e2c642bdbb531ac9e97af, type: 3}
    - {fileID: 21300000, guid: 1373bbff252ab7948a0f216dff340181, type: 3}
    - {fileID: 21300000, guid: 8caf790055c9f1948a5a7270f99425f6, type: 3}
    - {fileID: 21300000, guid: 8a348899322f2444f802853ddbfc033c, type: 3}
    - {fileID: 21300000, guid: ef930ceb7b18670478586884e8e63ffe, type: 3}
    - {fileID: 21300000, guid: 3636f7397a600ab4bbf02defe2f3c692, type: 3}
    - {fileID: 21300000, guid: c2a480011eb806441b55cd50244cbafa, type: 3}
    - {fileID: 21300000, guid: 87ad6e81629ec8a48bf306a5646e4eec, type: 3}
    - {fileID: 21300000, guid: 2b053ef5863e66a498bcc52d003b9085, type: 3}
    - {fileID: 21300000, guid: 0904faa4d55445740aa1b4b79d666b88, type: 3}
    - {fileID: 21300000, guid: f7017288f9b538746b1d6087476ad80b, type: 3}
    - {fileID: 21300000, guid: 5e2cbd8a5569ec340a645a776b6a3409, type: 3}
    - {fileID: 21300000, guid: b574e767af3f23446b10205bc04fd755, type: 3}
  m_AnimationClipSettings:
    serializedVersion: 2
    m_AdditiveReferencePoseClip: {fileID: 0}
    m_AdditiveReferencePoseTime: 0
    m_StartTime: 0
    m_StopTime: 2.3999999
    m_OrientationOffsetY: 0
    m_Level: 0
    m_CycleOffset: 0
    m_HasAdditiveReferencePose: 0
    m_LoopTime: 1
    m_LoopBlend: 0
    m_LoopBlendOrientation: 0
    m_LoopBlendPositionY: 0
    m_LoopBlendPositionXZ: 0
    m_KeepOriginalOrientation: 0
    m_KeepOriginalPositionY: 1
    m_KeepOriginalPositionXZ: 0
    m_HeightFromFeet: 0
    m_Mirror: 0
  m_EditorCurves: []
  m_EulerEditorCurves: []
  m_HasGenericRootTransform: 0
  m_HasMotionFloatCurves: 0
  m_GenerateMotionCurves: 0
  m_Events: []
